<?xml version="1.0" encoding="utf-8"?>
<!-- Generator: Adobe Illustrator 15.0.2, SVG Export Plug-In . SVG Version: 6.00 Build 0)  -->
<!DOCTYPE svg PUBLIC "-//W3C//DTD SVG 1.1//EN" "http://www.w3.org/Graphics/SVG/1.1/DTD/svg11.dtd">
<svg version="1.1" id="Layer_1" xmlns="http://www.w3.org/2000/svg" xmlns:xlink="http://www.w3.org/1999/xlink" x="0px" y="0px"
	 width="170.079px" height="170.079px" viewBox="0 0 170.079 170.079" enable-background="new 0 0 170.079 170.079"
	 xml:space="preserve">
<g id="Instagram">
	<path fill="#634D42" d="M170.079,159.86c0,5.5-4.5,10-10,10H10c-5.5,0-10-4.5-10-10V9.78c0-5.5,4.5-10,10-10h150.079
		c5.5,0,10,4.5,10,10V159.86z"/>
	<path id="shadow_1_" fill="#3B3B3C" d="M123.611,34.192h-74.68c-8.02,0-14.521,6.501-14.521,14.521v74.68
		c0,8.02,6.501,13.249,14.521,13.249l74.055-2.209c8.021,0,11.414-3.073,11.414-11.093l2.46-74.626
		C136.86,40.693,131.631,34.192,123.611,34.192z M86.271,66.241c11.665,0,20.467,8.146,20.467,19.812
		c0,9.982-8.802,19.813-20.467,19.813S65.805,95.217,65.805,86.053C65.805,74.388,74.606,66.241,86.271,66.241z M125.892,120.684
		c0,2.895-2.851,4.586-6.369,4.586H52.655c-3.517,0-6.368-1.691-6.368-4.586V78.752h9.048c-0.603,2.451-0.929,5.01-0.929,7.646
		c0,19.138,14.288,31.914,31.914,31.914s31.914-11.465,31.914-31.914c0-2.636-0.325-5.195-0.928-7.646h8.587L125.892,120.684
		L125.892,120.684z M125.604,58.2c0,2.895-2.348,5.242-5.242,5.242h-6.552c-2.896,0-5.241-2.347-5.241-5.242v-6.551
		c0-2.896,2.348-5.242,5.241-5.242h6.552c2.895,0,5.242,2.346,5.242,5.242V58.2z"/>
	<path id="main" fill="#E9E9E9" d="M122.2,32.78H47.52c-8.02,0-14.521,6.501-14.521,14.521v74.68c0,8.02,6.501,14.521,14.521,14.521
		h74.68c8.021,0,14.521-6.502,14.521-14.521v-74.68C136.721,39.282,130.22,32.78,122.2,32.78z M84.86,64.83
		c11.665,0,20.467,8.146,20.467,19.812c0,9.983-8.802,19.812-20.467,19.812S64.394,93.806,64.394,84.641
		C64.394,72.976,73.195,64.83,84.86,64.83z M124.48,119.272c0,2.895-2.851,4.586-6.369,4.586H51.244
		c-3.518,0-6.368-1.691-6.368-4.586V77.341h9.048c-0.603,2.451-0.929,5.01-0.929,7.646c0,19.139,14.288,31.914,31.914,31.914
		c17.626,0,31.916-11.465,31.916-31.914c0-2.636-0.326-5.195-0.93-7.646h8.587v41.931H124.48z M124.193,56.788
		c0,2.895-2.347,5.242-5.241,5.242h-6.553c-2.895,0-5.24-2.347-5.24-5.242v-6.551c0-2.896,2.346-5.242,5.24-5.242h6.553
		c2.896,0,5.241,2.346,5.241,5.242V56.788z"/>
</g>
</svg>
